WOUNDS DAWG

================================================================================
category=Mana Token
name=Arcane
================================================================================
category=Mana Token
name=Fire
================================================================================
category=Mana Token
name=Ice
================================================================================
category=Mana Token
name=Divine
================================================================================
category=Wounds Token
name=Slashing
================================================================================
category=Wounds Token
name=Blunt
================================================================================
category=Wounds Token
name=Piercing
